…
wbur
```

    ## # A tibble: 36 x 3
    ##    would_support preferred value
    ##    <chr>         <chr>     <dbl>
    ##  1 Biden         Biden      1   
    ##  2 Biden         Bloomberg  0.88
    ##  3 Biden         Buttigieg  0.81
    ##  4 Biden         Sanders    0.6 
    ##  5 Biden         Warren     0.86
    ##  6 Biden         Unsure     0.71
    ##  7 Bloomberg     Biden      0.67
    ##  8 Bloomberg     Bloomberg  1   
    ##  9 Bloomberg     Buttigieg  0.78
    ## 10 Bloomberg     Sanders    0.5 
    ## # … with 26 more rows
…
